-------------------------------------------------------------------------------
Test set: com.cts.project.AppTest
-------------------------------------------------------------------------------
Tests run: 1, Failures: 0, Errors: 0, Skipped: 0, Time elapsed: 0.019 s - in com.cts.project.AppTest
